\relax 
\providecommand\hyper@newdestlabel[2]{}
\providecommand\HyperFirstAtBeginDocument{\AtBeginDocument}
\HyperFirstAtBeginDocument{\ifx\hyper@anchor\@undefined
\global\let\oldcontentsline\contentsline
\gdef\contentsline#1#2#3#4{\oldcontentsline{#1}{#2}{#3}}
\global\let\oldnewlabel\newlabel
\gdef\newlabel#1#2{\newlabelxx{#1}#2}
\gdef\newlabelxx#1#2#3#4#5#6{\oldnewlabel{#1}{{#2}{#3}}}
\AtEndDocument{\ifx\hyper@anchor\@undefined
\let\contentsline\oldcontentsline
\let\newlabel\oldnewlabel
\fi}
\fi}
\global\let\hyper@last\relax 
\gdef\HyperFirstAtBeginDocument#1{#1}
\providecommand*\HyPL@Entry[1]{}
\HyPL@Entry{0<</S/D>>}
\select@language {french}
\@writefile{toc}{\select@language {french}}
\@writefile{lof}{\select@language {french}}
\@writefile{lot}{\select@language {french}}
\@writefile{toc}{\contentsline {chapter}{\numberline {1}Introduction}{7}{chapter.1}}
\@writefile{lof}{\addvspace {10\p@ }}
\@writefile{lot}{\addvspace {10\p@ }}
\newlabel{sec-1}{{1}{7}{Introduction}{chapter.1}{}}
\@writefile{toc}{\contentsline {section}{\numberline {1.1}Préface}{7}{section.1.1}}
\newlabel{sec-1-1}{{1.1}{7}{Préface}{section.1.1}{}}
\@writefile{toc}{\contentsline {section}{\numberline {1.2}Installation}{7}{section.1.2}}
\newlabel{sec-1-2}{{1.2}{7}{Installation}{section.1.2}{}}
\@writefile{toc}{\contentsline {section}{\numberline {1.3}Activation}{8}{section.1.3}}
\newlabel{sec-1-3}{{1.3}{8}{Activation}{section.1.3}{}}
\@writefile{toc}{\contentsline {section}{\numberline {1.4}Retours}{8}{section.1.4}}
\newlabel{sec-1-4}{{1.4}{8}{Retours}{section.1.4}{}}
\@writefile{toc}{\contentsline {chapter}{\numberline {2}Structure du document}{9}{chapter.2}}
\@writefile{lof}{\addvspace {10\p@ }}
\@writefile{lot}{\addvspace {10\p@ }}
\newlabel{sec-2}{{2}{9}{Structure du document}{chapter.2}{}}
\@writefile{toc}{\contentsline {section}{\numberline {2.1}Outlines}{9}{section.2.1}}
\newlabel{sec-2-1}{{2.1}{9}{Outlines}{section.2.1}{}}
\@writefile{toc}{\contentsline {section}{\numberline {2.2}Lignes d'en-tête}{9}{section.2.2}}
\newlabel{sec-2-2}{{2.2}{9}{Lignes d'en-tête}{section.2.2}{}}
\@writefile{toc}{\contentsline {section}{\numberline {2.3}Cycle de visibilité}{10}{section.2.3}}
\newlabel{sec-2-3}{{2.3}{10}{Cycle de visibilité}{section.2.3}{}}
\@writefile{toc}{\contentsline {section}{\numberline {2.4}Motion}{10}{section.2.4}}
\newlabel{sec-2-4}{{2.4}{10}{Motion}{section.2.4}{}}
\@writefile{toc}{\contentsline {section}{\numberline {2.5}Structure d'édition}{11}{section.2.5}}
\newlabel{sec-2-5}{{2.5}{11}{Structure d'édition}{section.2.5}{}}
\@writefile{toc}{\contentsline {section}{\numberline {2.6}Arbres clairsemés}{11}{section.2.6}}
\newlabel{sec-2-6}{{2.6}{11}{Arbres clairsemés}{section.2.6}{}}
\@writefile{toc}{\contentsline {section}{\numberline {2.7}Listes complètes}{12}{section.2.7}}
\newlabel{sec-2-7}{{2.7}{12}{Listes complètes}{section.2.7}{}}
\@writefile{toc}{\contentsline {section}{\numberline {2.8}Notes de bas de pages}{13}{section.2.8}}
\newlabel{sec-2-8}{{2.8}{13}{Notes de bas de pages}{section.2.8}{}}
\@writefile{toc}{\contentsline {chapter}{\numberline {3}Tableaux}{15}{chapter.3}}
\@writefile{lof}{\addvspace {10\p@ }}
\@writefile{lot}{\addvspace {10\p@ }}
\newlabel{sec-3}{{3}{15}{Tableaux}{chapter.3}{}}
\@writefile{toc}{\contentsline {chapter}{\numberline {4}Hyperliens}{17}{chapter.4}}
\@writefile{lof}{\addvspace {10\p@ }}
\@writefile{lot}{\addvspace {10\p@ }}
\newlabel{sec-4}{{4}{17}{Hyperliens}{chapter.4}{}}
\@writefile{toc}{\contentsline {section}{\numberline {4.1}Format de lien}{17}{section.4.1}}
\newlabel{sec-4-1}{{4.1}{17}{Format de lien}{section.4.1}{}}
\@writefile{toc}{\contentsline {section}{\numberline {4.2}Liens internes}{17}{section.4.2}}
\newlabel{sec-4-2}{{4.2}{17}{Liens internes}{section.4.2}{}}
\@writefile{toc}{\contentsline {section}{\numberline {4.3}Liens externes}{17}{section.4.3}}
\newlabel{sec-4-3}{{4.3}{17}{Liens externes}{section.4.3}{}}
\@writefile{toc}{\contentsline {section}{\numberline {4.4}Liens manuels}{18}{section.4.4}}
\newlabel{sec-4-4}{{4.4}{18}{Liens manuels}{section.4.4}{}}
\@writefile{toc}{\contentsline {section}{\numberline {4.5}Liens ciblés}{19}{section.4.5}}
\newlabel{sec-4-5}{{4.5}{19}{Liens ciblés}{section.4.5}{}}
\@writefile{toc}{\contentsline {chapter}{\numberline {5}Listes TODO (à faire)}{21}{chapter.5}}
\@writefile{lof}{\addvspace {10\p@ }}
\@writefile{lot}{\addvspace {10\p@ }}
\newlabel{sec-5}{{5}{21}{Listes TODO (à faire)}{chapter.5}{}}
\@writefile{toc}{\contentsline {section}{\numberline {5.1}Utilisation des états TODO}{21}{section.5.1}}
\newlabel{sec-5-1}{{5.1}{21}{Utilisation des états TODO}{section.5.1}{}}
\newlabel{distance}{{5.1}{21}{Utilisation des états TODO}{section.5.1}{}}
\@writefile{toc}{\contentsline {section}{\numberline {5.2}Flux d'états multiples}{22}{section.5.2}}
\newlabel{sec-5-2}{{5.2}{22}{Flux d'états multiples}{section.5.2}{}}
\@writefile{toc}{\contentsline {section}{\numberline {5.3}Progrès de journalisation}{23}{section.5.3}}
\newlabel{sec-5-3}{{5.3}{23}{Progrès de journalisation}{section.5.3}{}}
\@writefile{toc}{\contentsline {subsubsection}{Fermeture des items}{23}{section*.2}}
\newlabel{sec-5-3-1}{{5.3}{23}{Fermeture des items}{section*.2}{}}
\@writefile{toc}{\contentsline {subsubsection}{Traçage des changements d'états TODO}{23}{section*.3}}
\newlabel{sec-5-3-2}{{5.3}{23}{Traçage des changements d'états TODO}{section*.3}{}}
\@writefile{toc}{\contentsline {section}{\numberline {5.4}Priorités}{23}{section.5.4}}
\newlabel{sec-5-4}{{5.4}{23}{Priorités}{section.5.4}{}}
\@writefile{toc}{\contentsline {section}{\numberline {5.5}Découper les tâches en sous-tâches}{24}{section.5.5}}
\newlabel{sec-5-5}{{5.5}{24}{Découper les tâches en sous-tâches}{section.5.5}{}}
\@writefile{toc}{\contentsline {section}{\numberline {5.6}Boîtes à cocher}{24}{section.5.6}}
\newlabel{sec-5-6}{{5.6}{24}{Boîtes à cocher}{section.5.6}{}}
\@writefile{toc}{\contentsline {chapter}{\numberline {6}Balises}{27}{chapter.6}}
\@writefile{lof}{\addvspace {10\p@ }}
\@writefile{lot}{\addvspace {10\p@ }}
\newlabel{sec-6}{{6}{27}{Balises}{chapter.6}{}}
\@writefile{toc}{\contentsline {section}{\numberline {6.1}Héritage de balise}{27}{section.6.1}}
\newlabel{sec-6-1}{{6.1}{27}{Héritage de balise}{section.6.1}{}}
\@writefile{toc}{\contentsline {section}{\numberline {6.2}Configuration des balises}{28}{section.6.2}}
\newlabel{sec-6-2}{{6.2}{28}{Configuration des balises}{section.6.2}{}}
\@writefile{toc}{\contentsline {section}{\numberline {6.3}Balises de groupes}{28}{section.6.3}}
\newlabel{sec-6-3}{{6.3}{28}{Balises de groupes}{section.6.3}{}}
\@writefile{toc}{\contentsline {section}{\numberline {6.4}Recherche de balise}{29}{section.6.4}}
\newlabel{sec-6-4}{{6.4}{29}{Recherche de balise}{section.6.4}{}}
\@writefile{toc}{\contentsline {chapter}{\numberline {7}Propriétés}{31}{chapter.7}}
\@writefile{lof}{\addvspace {10\p@ }}
\@writefile{lot}{\addvspace {10\p@ }}
\newlabel{sec-7}{{7}{31}{Propriétés}{chapter.7}{}}
\@writefile{toc}{\contentsline {chapter}{\numberline {8}Dates et heures}{33}{chapter.8}}
\@writefile{lof}{\addvspace {10\p@ }}
\@writefile{lot}{\addvspace {10\p@ }}
\newlabel{sec-8}{{8}{33}{Dates et heures}{chapter.8}{}}
\@writefile{toc}{\contentsline {section}{\numberline {8.1}Horodateurs}{33}{section.8.1}}
\newlabel{sec-8-1}{{8.1}{33}{Horodateurs}{section.8.1}{}}
\@writefile{toc}{\contentsline {section}{\numberline {8.2}Création d'horodatages}{34}{section.8.2}}
\newlabel{sec-8-2}{{8.2}{34}{Création d'horodatages}{section.8.2}{}}
\@writefile{toc}{\contentsline {section}{\numberline {8.3}Dates limites et plannification}{35}{section.8.3}}
\newlabel{sec-8-3}{{8.3}{35}{Dates limites et plannification}{section.8.3}{}}
\@writefile{toc}{\contentsline {section}{\numberline {8.4}Chronométrage du temps de travail}{36}{section.8.4}}
\newlabel{sec-8-4}{{8.4}{36}{Chronométrage du temps de travail}{section.8.4}{}}
\@writefile{toc}{\contentsline {chapter}{\numberline {9}Capture - Sauvegardes - Archives}{39}{chapter.9}}
\@writefile{lof}{\addvspace {10\p@ }}
\@writefile{lot}{\addvspace {10\p@ }}
\newlabel{sec-9}{{9}{39}{Capture - Sauvegardes - Archives}{chapter.9}{}}
\@writefile{toc}{\contentsline {section}{\numberline {9.1}Capture}{39}{section.9.1}}
\newlabel{sec-9-1}{{9.1}{39}{Capture}{section.9.1}{}}
\@writefile{toc}{\contentsline {section}{\numberline {9.2}Configuration d'un emplacement de capture}{39}{section.9.2}}
\newlabel{sec-9-2}{{9.2}{39}{Configuration d'un emplacement de capture}{section.9.2}{}}
\@writefile{toc}{\contentsline {section}{\numberline {9.3}Utilisation de capture}{39}{section.9.3}}
\newlabel{sec-9-3}{{9.3}{39}{Utilisation de capture}{section.9.3}{}}
\@writefile{toc}{\contentsline {section}{\numberline {9.4}Modèles de capture}{40}{section.9.4}}
\newlabel{sec-9-4}{{9.4}{40}{Modèles de capture}{section.9.4}{}}
\@writefile{toc}{\contentsline {section}{\numberline {9.5}Déposer de nouveau et copier}{41}{section.9.5}}
\newlabel{sec-9-5}{{9.5}{41}{Déposer de nouveau et copier}{section.9.5}{}}
\@writefile{toc}{\contentsline {section}{\numberline {9.6}Archivage}{41}{section.9.6}}
\newlabel{sec-9-6}{{9.6}{41}{Archivage}{section.9.6}{}}
\@writefile{toc}{\contentsline {chapter}{\numberline {10}Vue de l'agenda}{43}{chapter.10}}
\@writefile{lof}{\addvspace {10\p@ }}
\@writefile{lot}{\addvspace {10\p@ }}
\newlabel{sec-10}{{10}{43}{Vue de l'agenda}{chapter.10}{}}
\@writefile{toc}{\contentsline {section}{\numberline {10.1}Fichiers d'agenda}{43}{section.10.1}}
\newlabel{sec-10-1}{{10.1}{43}{Fichiers d'agenda}{section.10.1}{}}
\@writefile{toc}{\contentsline {section}{\numberline {10.2}Le répartiteur de l'agenda}{43}{section.10.2}}
\newlabel{sec-10-2}{{10.2}{43}{Le répartiteur de l'agenda}{section.10.2}{}}
\@writefile{toc}{\contentsline {section}{\numberline {10.3}Les vues intégrées dans l'agenda}{44}{section.10.3}}
\newlabel{sec-10-3}{{10.3}{44}{Les vues intégrées dans l'agenda}{section.10.3}{}}
\@writefile{toc}{\contentsline {subsubsection}{L'agenda quotidien/hebdomadaire}{44}{section*.4}}
\newlabel{sec-10-3-1}{{10.3}{44}{L'agenda quotidien/hebdomadaire}{section*.4}{}}
\@writefile{toc}{\contentsline {subsubsection}{La liste TODO globale}{44}{section*.5}}
\newlabel{sec-10-3-2}{{10.3}{44}{La liste TODO globale}{section*.5}{}}
\@writefile{toc}{\contentsline {subsubsection}{Correspondance balises et propriétés}{45}{section*.6}}
\newlabel{sec-10-3-3}{{10.3}{45}{Correspondance balises et propriétés}{section*.6}{}}
\@writefile{toc}{\contentsline {subsubsection}{Ligne de temps pour un fichier simple}{45}{section*.7}}
\newlabel{sec-10-3-4}{{10.3}{45}{Ligne de temps pour un fichier simple}{section*.7}{}}
\@writefile{toc}{\contentsline {subsubsection}{Vue de recherche}{46}{section*.8}}
\newlabel{sec-10-3-5}{{10.3}{46}{Vue de recherche}{section*.8}{}}
\@writefile{toc}{\contentsline {section}{\numberline {10.4}Commande dans le tampon agenda}{46}{section.10.4}}
\newlabel{sec-10-4}{{10.4}{46}{Commande dans le tampon agenda}{section.10.4}{}}
\newlabel{distance}{{10.4}{46}{Commande dans le tampon agenda}{section.10.4}{}}
\@writefile{toc}{\contentsline {section}{\numberline {10.5}Personnalise les vues de l'agenda}{48}{section.10.5}}
\newlabel{sec-10-5}{{10.5}{48}{Personnalise les vues de l'agenda}{section.10.5}{}}
\@writefile{toc}{\contentsline {chapter}{\numberline {11}Marquages pour exportation riche}{49}{chapter.11}}
\@writefile{lof}{\addvspace {10\p@ }}
\@writefile{lot}{\addvspace {10\p@ }}
\newlabel{sec-11}{{11}{49}{Marquages pour exportation riche}{chapter.11}{}}
\@writefile{toc}{\contentsline {section}{\numberline {11.1}Eléments structurels de marquage}{49}{section.11.1}}
\newlabel{sec-11-1}{{11.1}{49}{Eléments structurels de marquage}{section.11.1}{}}
\@writefile{toc}{\contentsline {section}{\numberline {11.2}Tableaux et images}{51}{section.11.2}}
\newlabel{sec-11-2}{{11.2}{51}{Tableaux et images}{section.11.2}{}}
\@writefile{toc}{\contentsline {section}{\numberline {11.3}Exemples littéraux}{51}{section.11.3}}
\newlabel{sec-11-3}{{11.3}{51}{Exemples littéraux}{section.11.3}{}}
\@writefile{toc}{\contentsline {section}{\numberline {11.4}Inclusion de fichiers}{52}{section.11.4}}
\newlabel{sec-11-4}{{11.4}{52}{Inclusion de fichiers}{section.11.4}{}}
\@writefile{toc}{\contentsline {section}{\numberline {11.5}\LaTeX  {} embarqué}{52}{section.11.5}}
\newlabel{sec-11-5}{{11.5}{52}{\LaTeX {} embarqué}{section.11.5}{}}
\@writefile{toc}{\contentsline {chapter}{\numberline {12}Exportation}{53}{chapter.12}}
\@writefile{lof}{\addvspace {10\p@ }}
\@writefile{lot}{\addvspace {10\p@ }}
\newlabel{sec-12}{{12}{53}{Exportation}{chapter.12}{}}
\@writefile{toc}{\contentsline {section}{\numberline {12.1}Options d'exportation}{53}{section.12.1}}
\newlabel{sec-12-1}{{12.1}{53}{Options d'exportation}{section.12.1}{}}
\@writefile{toc}{\contentsline {section}{\numberline {12.2}Le repartiteur d'exportation}{54}{section.12.2}}
\newlabel{sec-12-2}{{12.2}{54}{Le repartiteur d'exportation}{section.12.2}{}}
\@writefile{toc}{\contentsline {section}{\numberline {12.3}Exportation ASCII/Latin-1/UTF-8}{54}{section.12.3}}
\newlabel{sec-12-3}{{12.3}{54}{Exportation ASCII/Latin-1/UTF-8}{section.12.3}{}}
\@writefile{toc}{\contentsline {section}{\numberline {12.4}Exportation HTML}{54}{section.12.4}}
\newlabel{sec-12-4}{{12.4}{54}{Exportation HTML}{section.12.4}{}}
\@writefile{toc}{\contentsline {section}{\numberline {12.5}Exportation \LaTeX  {} et PDF}{55}{section.12.5}}
\newlabel{sec-12-5}{{12.5}{55}{Exportation \LaTeX {} et PDF}{section.12.5}{}}
\@writefile{toc}{\contentsline {section}{\numberline {12.6}Exportation iCalendar}{55}{section.12.6}}
\newlabel{sec-12-6}{{12.6}{55}{Exportation iCalendar}{section.12.6}{}}
\@writefile{toc}{\contentsline {chapter}{\numberline {13}Publication}{57}{chapter.13}}
\@writefile{lof}{\addvspace {10\p@ }}
\@writefile{lot}{\addvspace {10\p@ }}
\newlabel{sec-13}{{13}{57}{Publication}{chapter.13}{}}
\@writefile{toc}{\contentsline {chapter}{\numberline {14}Travail avec le code source}{59}{chapter.14}}
\@writefile{lof}{\addvspace {10\p@ }}
\@writefile{lot}{\addvspace {10\p@ }}
\newlabel{sec-14}{{14}{59}{Travail avec le code source}{chapter.14}{}}
\@writefile{toc}{\contentsline {chapter}{\numberline {15}Divers}{63}{chapter.15}}
\@writefile{lof}{\addvspace {10\p@ }}
\@writefile{lot}{\addvspace {10\p@ }}
\newlabel{sec-15}{{15}{63}{Divers}{chapter.15}{}}
\@writefile{toc}{\contentsline {section}{\numberline {15.1}Complétion}{63}{section.15.1}}
\newlabel{sec-15-1}{{15.1}{63}{Complétion}{section.15.1}{}}
\@writefile{toc}{\contentsline {section}{\numberline {15.2}Une vue propre de grande ligne}{63}{section.15.2}}
\newlabel{sec-15-2}{{15.2}{63}{Une vue propre de grande ligne}{section.15.2}{}}
\@writefile{toc}{\contentsline {section}{\numberline {15.3}MobileOrg}{64}{section.15.3}}
\newlabel{sec-15-3}{{15.3}{64}{MobileOrg}{section.15.3}{}}
\@writefile{toc}{\contentsline {chapter}{\numberline {16}GNU Free Documentation License}{65}{chapter.16}}
\@writefile{lof}{\addvspace {10\p@ }}
\@writefile{lot}{\addvspace {10\p@ }}
\newlabel{sec-16}{{16}{65}{GNU Free Documentation License}{chapter.16}{}}
